{
    "number":0,
    "size":10,
    "totalPages":70,
    "numberOfElements":0,
    "totalElements":692,
    "content":[
        {
            "id":"7db191b5c7de11e9a169fa163ebd08c7",
            "orgId":"f0e134a8c7df11e9a169fa163ebd08c7",
            "dealerSn":"BJ043",
            "dealerName":"【电车】北京胜鸿都",
            "companyFull":"北京胜鸿都汽车销售服务有限公司",
            "type":1,
            "logo":"http://cdn.smartservice.bjev.com.cn/baicapp/20211017/6ca52a4b67294c2fb99f3033be086d32",
            "aid":null,
            "pid":null,
            "cid":null,
            "rid":null,
            "area":"北京",
            "province":"北京",
            "city":"北京",
            "district":"朝阳区",
            "address":"北京市朝阳区利泽东园306号",
            "picName":null,
            "picMobile":null,
            "salesManagerName":null,
            "salesManagerMobile":null,
            "serviceManagerName":"13910670501",
            "serviceManagerMobile":"13910670501",
            "salesHotLine":"010-64392288",
            "fullTimeHotLine":"010-64392288",
            "longitude":"116.4798727764",
            "latitude":"40.0135645146",
            "qrcode":null,
            "qrcodeContent":null,
            "status":1,
            "appPresentationStatus":1,
            "weighting":null,
            "createtime":"2020-03-06 17:16:37",
            "updatetime":"2021-04-28 09:00:40",
            "score":0,
            "grade":1,
            "feedbackRate":"80%",
            "comments":5,
            "distance":4.45,
            "labelList":null,
            "imageObject":null,
            "operaterId":"8ad84b8c6c8fc931016ca7eac9930721",
            "baseDealerCode":null,
            "teamName":null,
            "sbuManager":null,
            "sbuTeamManager":null,
            "sbuTeamPhone":null,
            "eMail":null,
            "dealerLevel":null,
            "linkMan":null,
            "linkManPhone":null,
            "isSample":null,
            "keyPoseNum":null,
            "stationNum":null,
            "isWhite":null,
            "backoffDate":null,
            "authorizeDate":null,
            "dealerForm":null,
            "dealerCode":"S110104",
            "doubleable":2,
            "dealerType":1,
            "oilCode":"BJ043",
            "parentId":null,
            "collection":1
        },
        {
            "id":"ea3b31dcb03011e9baddfa163e56700f",
            "orgId":"bd327a44b05611e9baddfa163e56700f",
            "dealerSn":"BJ041",
            "dealerName":"【电车】北京锐途",
            "companyFull":"北京锐途汽车服务有限公司",
            "type":0,
            "logo":"http://cdn.smartservice.bjev.com.cn/baicapp/20211017/6ca52a4b67294c2fb99f3033be086d32",
            "aid":null,
            "pid":null,
            "cid":null,
            "rid":null,
            "area":"北京",
            "province":"北京",
            "city":"北京",
            "district":"朝阳区",
            "address":"北京市朝阳区姚家园路72号",
            "picName":"陈凯",
            "picMobile":"13810160419",
            "salesManagerName":"李聪",
            "salesManagerMobile":"18610705055",
            "serviceManagerName":"13475481235",
            "serviceManagerMobile":"13475481235",
            "salesHotLine":"010-85525885",
            "fullTimeHotLine":"010-85525885",
            "longitude":"116.528645",
            "latitude":"39.94075",
            "qrcode":null,
            "qrcodeContent":null,
            "status":1,
            "appPresentationStatus":1,
            "weighting":0,
            "createtime":"2020-03-06 17:16:37",
            "updatetime":"2020-03-06 17:16:37",
            "score":8,
            "grade":5,
            "feedbackRate":"100%",
            "comments":11,
            "distance":4.93,
            "labelList":null,
            "imageObject":null,
            "operaterId":null,
            "baseDealerCode":null,
            "teamName":null,
            "sbuManager":null,
            "sbuTeamManager":null,
            "sbuTeamPhone":null,
            "eMail":null,
            "dealerLevel":null,
            "linkMan":null,
            "linkManPhone":null,
            "isSample":null,
            "keyPoseNum":null,
            "stationNum":null,
            "isWhite":null,
            "backoffDate":null,
            "authorizeDate":null,
            "dealerForm":null,
            "dealerCode":"R110112",
            "doubleable":2,
            "dealerType":1,
            "oilCode":"BJ041",
            "parentId":null,
            "collection":0
        },
        {
            "id":"7db1957dc7de11e9a169fa163ebd08c7",
            "orgId":"f0e135d5c7df11e9a169fa163ebd08c7",
            "dealerSn":"BJ045",
            "dealerName":"【电车】北京鸿都瑞通",
            "companyFull":"北京鸿都瑞通汽车销售服务有限公司",
            "type":2,
            "logo":"http://cdn.smartservice.bjev.com.cn/baicapp/20211017/6ca52a4b67294c2fb99f3033be086d32",
            "aid":null,
            "pid":0,
            "cid":0,
            "rid":0,
            "area":"北京",
            "province":"北京市",
            "city":"市辖区",
            "district":"朝阳区",
            "address":"北京市朝阳区来广营西路甲9号",
            "picName":null,
            "picMobile":null,
            "salesManagerName":null,
            "salesManagerMobile":null,
            "serviceManagerName":"13021976182",
            "serviceManagerMobile":"13021976182",
            "salesHotLine":"010-84916616",
            "fullTimeHotLine":null,
            "longitude":"116.4513129175",
            "latitude":"40.0207502178",
            "qrcode":null,
            "qrcodeContent":null,
            "status":1,
            "appPresentationStatus":1,
            "weighting":null,
            "createtime":"2020-03-06 17:16:37",
            "updatetime":"2022-03-25 14:39:26",
            "score":0,
            "grade":1,
            "feedbackRate":"100%",
            "comments":2,
            "distance":6.16,
            "labelList":null,
            "imageObject":null,
            "operaterId":"8ad84b8c788421730178fc8d926c38c7",
            "baseDealerCode":null,
            "teamName":null,
            "sbuManager":null,
            "sbuTeamManager":null,
            "sbuTeamPhone":null,
            "eMail":null,
            "dealerLevel":null,
            "linkMan":null,
            "linkManPhone":null,
            "isSample":null,
            "keyPoseNum":null,
            "stationNum":null,
            "isWhite":null,
            "backoffDate":null,
            "authorizeDate":null,
            "dealerForm":null,
            "dealerCode":"R110127",
            "doubleable":2,
            "dealerType":1,
            "oilCode":"C0125",
            "parentId":null,
            "collection":0
        },
        {
            "id":"7db17f51c7de11e9a169fa163ebd08c7",
            "orgId":"f0e131bdc7df11e9a169fa163ebd08c7",
            "dealerSn":"BJ015",
            "dealerName":"【电车】北汽鹏元",
            "companyFull":"北京北汽鹏元汽车销售服务有限公司",
            "type":0,
            "logo":"http://cdn.smartservice.bjev.com.cn/baicapp/20211017/6ca52a4b67294c2fb99f3033be086d32",
            "aid":null,
            "pid":null,
            "cid":null,
            "rid":null,
            "area":"北京",
            "province":"北京",
            "city":"北京",
            "district":"朝阳区",
            "address":"北京市朝阳区朝阳北路57号",
            "picName":null,
            "picMobile":null,
            "salesManagerName":null,
            "salesManagerMobile":null,
            "serviceManagerName":"18511203195",
            "serviceManagerMobile":"18511203195",
            "salesHotLine":"010-65757667",
            "fullTimeHotLine":"010-65757667",
            "longitude":"116.5480333266",
            "latitude":"39.9247726598",
            "qrcode":null,
            "qrcodeContent":null,
            "status":1,
            "appPresentationStatus":1,
            "weighting":null,
            "createtime":"2020-03-06 17:16:37",
            "updatetime":"2020-03-06 17:16:37",
            "score":7,
            "grade":5,
            "feedbackRate":"75%",
            "comments":8,
            "distance":7.35,
            "labelList":null,
            "imageObject":null,
            "operaterId":null,
            "baseDealerCode":null,
            "teamName":null,
            "sbuManager":null,
            "sbuTeamManager":null,
            "sbuTeamPhone":null,
            "eMail":null,
            "dealerLevel":null,
            "linkMan":null,
            "linkManPhone":null,
            "isSample":null,
            "keyPoseNum":null,
            "stationNum":null,
            "isWhite":null,
            "backoffDate":null,
            "authorizeDate":null,
            "dealerForm":null,
            "dealerCode":"R110122",
            "doubleable":1,
            "dealerType":1,
            "oilCode":"C0101",
            "parentId":null,
            "collection":0
        },
        {
            "id":"40288afb1116bbc5555084c01dag6229",
            "orgId":"f0r17c9039ab2c7po11e9a169hg00001",
            "dealerSn":"C0101",
            "dealerName":"【油车】北汽鹏元",
            "companyFull":"北京北汽鹏元汽车销售服务有限公司",
            "type":0,
            "logo":"http://cdn.smartservice.bjev.com.cn/baicapp/20211017/6ca52a4b67294c2fb99f3033be086d32",
            "aid":null,
            "pid":110000,
            "cid":110100,
            "rid":110105,
            "area":"北京",
            "province":"北京市",
            "city":"北京市",
            "district":"朝阳区",
            "address":"北京市朝阳区朝阳北路57号",
            "picName":null,
            "picMobile":null,
            "salesManagerName":null,
            "salesManagerMobile":null,
            "serviceManagerName":null,
            "serviceManagerMobile":null,
            "salesHotLine":"010-65753808",
            "fullTimeHotLine":"010-65757667",
            "longitude":"116.54854",
            "latitude":"39.92486",
            "qrcode":null,
            "qrcodeContent":null,
            "status":1,
            "appPresentationStatus":1,
            "weighting":null,
            "createtime":"2020-03-06 17:16:37",
            "updatetime":"2022-03-21 13:39:10",
            "score":0,
            "grade":1,
            "feedbackRate":"0%",
            "comments":0,
            "distance":7.38,
            "labelList":null,
            "imageObject":null,
            "operaterId":"8ad84b8c7629751f01764019966d1835",
            "baseDealerCode":null,
            "teamName":null,
            "sbuManager":null,
            "sbuTeamManager":null,
            "sbuTeamPhone":null,
            "eMail":null,
            "dealerLevel":null,
            "linkMan":null,
            "linkManPhone":null,
            "isSample":null,
            "keyPoseNum":null,
            "stationNum":null,
            "isWhite":null,
            "backoffDate":null,
            "authorizeDate":null,
            "dealerForm":null,
            "dealerCode":"R110122",
            "doubleable":1,
            "dealerType":2,
            "oilCode":"C0101",
            "parentId":null,
            "collection":0
        },
        {
            "id":"0651d1somehow1e9bace6c92bf480006",
            "orgId":"f0e17d0811ab2c7df111even9fa16006",
            "dealerSn":"S110144",
            "dealerName":"【电车】北京绿信",
            "companyFull":"北京绿信汽车技术服务有限�任公司",
            "type":1,
            "logo":"http://cdn.smartservice.bjev.com.cn/baicapp/20211017/6ca52a4b67294c2fb99f3033be086d32",
            "aid":null,
            "pid":0,
            "cid":0,
            "rid":0,
            "area":"北京",
            "province":"北京",
            "city":"北京",
            "district":"朝阳区",
            "address":"北京市朝阳区崔各庄乡马泉营村村北孙河西路12号",
            "picName":null,
            "picMobile":null,
            "salesManagerName":null,
            "salesManagerMobile":null,
            "serviceManagerName":null,
            "serviceManagerMobile":null,
            "salesHotLine":null,
            "fullTimeHotLine":"13691356277",
            "longitude":"116.522001",
            "latitude":"40.048043",
            "qrcode":null,
            "qrcodeContent":null,
            "status":1,
            "appPresentationStatus":1,
            "weighting":null,
            "createtime":null,
            "updatetime":"2022-03-14 10:21:23",
            "score":0,
            "grade":1,
            "feedbackRate":"0%",
            "comments":0,
            "distance":8.59,
            "labelList":null,
            "imageObject":null,
            "operaterId":"8ad84b8c7629751f01764019966d1835",
            "baseDealerCode":null,
            "teamName":null,
            "sbuManager":null,
            "sbuTeamManager":null,
            "sbuTeamPhone":null,
            "eMail":null,
            "dealerLevel":null,
            "linkMan":null,
            "linkManPhone":null,
            "isSample":null,
            "keyPoseNum":null,
            "stationNum":null,
            "isWhite":null,
            "backoffDate":null,
            "authorizeDate":null,
            "dealerForm":null,
            "dealerCode":"S110144",
            "doubleable":2,
            "dealerType":1,
            "oilCode":"",
            "parentId":null,
            "collection":0
        },
        {
            "id":"fc34b5c9c0479d06e76158251bb84fbd",
            "orgId":"f1288bbaa0aafa789c70bdb51ab01ff2",
            "dealerSn":"ABJ120",
            "dealerName":"【电车】北京通绍鸿店",
            "companyFull":"北京通绍鸿汽车销售服务有限公司",
            "type":2,
            "logo":"http://cdn.smartservice.bjev.com.cn/baicapp/20211017/6ca52a4b67294c2fb99f3033be086d32",
            "aid":0,
            "pid":0,
            "cid":0,
            "rid":0,
            "area":"北京",
            "province":"北京市",
            "city":"市辖区",
            "district":"朝阳区",
            "address":"北京市朝阳区德胜门外花虎沟99号一层",
            "picName":" ",
            "picMobile":null,
            "salesManagerName":null,
            "salesManagerMobile":null,
            "serviceManagerName":null,
            "serviceManagerMobile":null,
            "salesHotLine":"010-66555656-616",
            "fullTimeHotLine":null,
            "longitude":"116.364537",
            "latitude":"40.025728",
            "qrcode":null,
            "qrcodeContent":null,
            "status":1,
            "appPresentationStatus":1,
            "weighting":null,
            "createtime":null,
            "updatetime":"2022-03-21 15:22:46",
            "score":0,
            "grade":1,
            "feedbackRate":"0%",
            "comments":0,
            "distance":12.21,
            "labelList":null,
            "imageObject":null,
            "operaterId":"8ad84b8c7629751f01764019966d1835",
            "baseDealerCode":null,
            "teamName":null,
            "sbuManager":null,
            "sbuTeamManager":null,
            "sbuTeamPhone":null,
            "eMail":null,
            "dealerLevel":null,
            "linkMan":null,
            "linkManPhone":null,
            "isSample":null,
            "keyPoseNum":null,
            "stationNum":null,
            "isWhite":null,
            "backoffDate":null,
            "authorizeDate":null,
            "dealerForm":null,
            "dealerCode":"X110116",
            "doubleable":2,
            "dealerType":1,
            "oilCode":null,
            "parentId":null,
            "collection":0
        },
        {
            "id":"2c9083957b07637a017b9a0042f91c3f",
            "orgId":"2c9083947b4fb804017b9a0042f5322c",
            "dealerSn":"BJ073",
            "dealerName":"【电车】清研精准",
            "companyFull":null,
            "type":1,
            "logo":"http://cdn.smartservice.bjev.com.cn/baicapp/20211017/6ca52a4b67294c2fb99f3033be086d32",
            "aid":null,
            "pid":110000,
            "cid":110100,
            "rid":110105,
            "area":null,
            "province":"北京市",
            "city":"北京市市辖区",
            "district":"朝阳区",
            "address":"北京市朝阳区双桥中路（北京市农机物资供应公司仓库）1幢3号",
            "picName":null,
            "picMobile":null,
            "salesManagerName":null,
            "salesManagerMobile":null,
            "serviceManagerName":null,
            "serviceManagerMobile":null,
            "salesHotLine":null,
            "fullTimeHotLine":"010-56676836",
            "longitude":"116.596891",
            "latitude":"39.893512",
            "qrcode":null,
            "qrcodeContent":null,
            "status":1,
            "appPresentationStatus":1,
            "weighting":null,
            "createtime":"2021-08-31 10:18:34",
            "updatetime":"2022-03-21 13:20:44",
            "score":0,
            "grade":1,
            "feedbackRate":"0%",
            "comments":0,
            "distance":12.75,
            "labelList":null,
            "imageObject":null,
            "operaterId":"8ad84b8c7629751f01764019966d1835",
            "baseDealerCode":null,
            "teamName":null,
            "sbuManager":null,
            "sbuTeamManager":null,
            "sbuTeamPhone":null,
            "eMail":null,
            "dealerLevel":null,
            "linkMan":null,
            "linkManPhone":null,
            "isSample":null,
            "keyPoseNum":null,
            "stationNum":null,
            "isWhite":null,
            "backoffDate":null,
            "authorizeDate":null,
            "dealerForm":null,
            "dealerCode":"S110149",
            "doubleable":null,
            "dealerType":1,
            "oilCode":null,
            "parentId":null,
            "collection":0
        },
        {
            "id":"ea3b2ea2b03011e9baddfa163e56700f",
            "orgId":"bd3276cab05611e9baddfa163e56700f",
            "dealerSn":"BJ010",
            "dealerName":"【电车】庞大华威",
            "companyFull":"北京庞大华威昌业汽车销售服务有限公司",
            "type":0,
            "logo":"http://cdn.smartservice.bjev.com.cn/baicapp/20211017/6ca52a4b67294c2fb99f3033be086d32",
            "aid":null,
            "pid":null,
            "cid":null,
            "rid":null,
            "area":"北京",
            "province":"北京",
            "city":"北京",
            "district":"朝阳区",
            "address":"北京市朝阳区京哈高速五方桥东柏阳景区南门海棠公社小区对面",
            "picName":"张杰",
            "picMobile":"18931556879",
            "salesManagerName":"裴海朝",
            "salesManagerMobile":"17610339600",
            "serviceManagerName":"13931471666",
            "serviceManagerMobile":"13931471666",
            "salesHotLine":"010-67207787",
            "fullTimeHotLine":"010-67207787",
            "longitude":"116.554641",
            "latitude":"39.869385",
            "qrcode":null,
            "qrcodeContent":null,
            "status":1,
            "appPresentationStatus":1,
            "weighting":0,
            "createtime":"2020-03-06 17:16:37",
            "updatetime":"2020-03-06 17:16:37",
            "score":7,
            "grade":5,
            "feedbackRate":"100%",
            "comments":10,
            "distance":12.89,
            "labelList":null,
            "imageObject":null,
            "operaterId":null,
            "baseDealerCode":null,
            "teamName":null,
            "sbuManager":null,
            "sbuTeamManager":null,
            "sbuTeamPhone":null,
            "eMail":null,
            "dealerLevel":null,
            "linkMan":null,
            "linkManPhone":null,
            "isSample":null,
            "keyPoseNum":null,
            "stationNum":null,
            "isWhite":null,
            "backoffDate":null,
            "authorizeDate":null,
            "dealerForm":null,
            "dealerCode":"R110110",
            "doubleable":2,
            "dealerType":1,
            "oilCode":"BJ010",
            "parentId":null,
            "collection":0
        },
        {
            "id":"ea3b57c5b03011e9baddfa163e567002",
            "orgId":"bd330d6fb05611e9baddfa163e567101",
            "dealerSn":"BJ061",
            "dealerName":"【电车】北京鹏远兴业",
            "companyFull":"北京鹏远兴业汽车销售服务有限公司",
            "type":0,
            "logo":"http://cdn.smartservice.bjev.com.cn/baicapp/20211017/6ca52a4b67294c2fb99f3033be086d32",
            "aid":null,
            "pid":0,
            "cid":0,
            "rid":0,
            "area":"北京",
            "province":"北京",
            "city":"北京",
            "district":"朝阳区",
            "address":"北京市朝阳区豆各庄乡黄厂村甲399号",
            "picName":null,
            "picMobile":null,
            "salesManagerName":null,
            "salesManagerMobile":null,
            "serviceManagerName":"阮威",
            "serviceManagerMobile":"13910873183",
            "salesHotLine":"010-87306666",
            "fullTimeHotLine":"010-87306666",
            "longitude":"116.549884",
            "latitude":"39.860786",
            "qrcode":null,
            "qrcodeContent":null,
            "status":1,
            "appPresentationStatus":1,
            "weighting":null,
            "createtime":"2020-03-06 17:16:37",
            "updatetime":"2022-03-21 15:13:49",
            "score":0,
            "grade":1,
            "feedbackRate":"100%",
            "comments":1,
            "distance":13.61,
            "labelList":null,
            "imageObject":null,
            "operaterId":"8ad84b8c7629751f01764019966d1835",
            "baseDealerCode":null,
            "teamName":null,
            "sbuManager":null,
            "sbuTeamManager":"刘伯龙",
            "sbuTeamPhone":null,
            "eMail":null,
            "dealerLevel":null,
            "linkMan":null,
            "linkManPhone":null,
            "isSample":null,
            "keyPoseNum":null,
            "stationNum":null,
            "isWhite":null,
            "backoffDate":null,
            "authorizeDate":null,
            "dealerForm":null,
            "dealerCode":"R110123",
            "doubleable":1,
            "dealerType":1,
            "oilCode":"C0104",
            "parentId":null,
            "collection":0
        }
    ],
    "hasPreviousPage":false,
    "firstPage":true,
    "hasNextPage":false,
    "lastPage":false,
    "last":false,
    "first":true,
    "iterator":null,
    "hasContent":true
}